<svg xmlns="http://www.w3.org/2000/svg" xmlns:xlink="http://www.w3.org/1999/xlink" width="13.508" height="13.507" viewBox="0 0 13.508 13.507">
  <defs>
    <clipPath id="clip-path">
      <path id="Path_1025" data-name="Path 1025" d="M487.826,1461.8a5.692,5.692,0,1,1-5.692-5.692A5.691,5.691,0,0,1,487.826,1461.8Z" fill="none"/>
    </clipPath>
    <linearGradient id="linear-gradient" x1="0.499" y1="0.994" x2="0.5" y2="0.23" gradientUnits="objectBoundingBox">
      <stop offset="0" stop-color="#fff" stop-opacity="0"/>
      <stop offset="1" stop-color="#fff"/>
    </linearGradient>
    <linearGradient id="linear-gradient-2" x1="0.5" y1="0.344" x2="0.5" y2="0.946" gradientUnits="objectBoundingBox">
      <stop offset="0" stop-color="#e5e2df"/>
      <stop offset="0" stop-color="#ddd9d6"/>
      <stop offset="0.063" stop-color="#cecac8"/>
      <stop offset="0.183" stop-color="#a7a3a6"/>
      <stop offset="0.264" stop-color="#8a868c"/>
      <stop offset="0.522" stop-color="#f2f3f3"/>
      <stop offset="0.585" stop-color="#e3e4e4"/>
      <stop offset="0.705" stop-color="#bebdbf"/>
      <stop offset="0.869" stop-color="#827e82"/>
      <stop offset="0.876" stop-color="#807c80"/>
      <stop offset="1" stop-color="#d0d2d3"/>
      <stop offset="1" stop-color="#a6a8ab"/>
    </linearGradient>
    <clipPath id="clip-path-2">
      <path id="Path_1031" data-name="Path 1031" d="M488.17,1461.8a5.885,5.885,0,1,1-5.884-5.884A5.883,5.883,0,0,1,488.17,1461.8Z" fill="none" stroke="#d0d2d3" stroke-miterlimit="10" stroke-width="0.269"/>
    </clipPath>
    <clipPath id="clip-path-3">
      <rect id="Rectangle_178" data-name="Rectangle 178" width="21.44" height="12.508" transform="translate(471.495 1455.567)" fill="none"/>
    </clipPath>
    <linearGradient id="linear-gradient-3" x1="0.499" y1="0.994" x2="0.501" y2="0.23" xlink:href="#linear-gradient"/>
    <radialGradient id="radial-gradient" cx="482.215" cy="1461.735" r="6.445" gradientTransform="matrix(0.945, 0.345, -0.346, 0.95, 5.382, -6.655)" gradientUnits="userSpaceOnUse">
      <stop offset="0" stop-color="#fff"/>
      <stop offset="0.085" stop-color="#f6f6f6"/>
      <stop offset="0.22" stop-color="#e0e0e0"/>
      <stop offset="0.386" stop-color="#bbb"/>
      <stop offset="0.578" stop-color="#888"/>
      <stop offset="0.789" stop-color="#474747"/>
      <stop offset="1"/>
    </radialGradient>
    <radialGradient id="radial-gradient-2" cx="482.215" cy="1461.736" r="7.085" gradientUnits="userSpaceOnUse">
      <stop offset="0" stop-color="#fff"/>
      <stop offset="0.692" stop-color="#fafafa"/>
      <stop offset="1" stop-color="#ccc"/>
    </radialGradient>
    <clipPath id="clip-path-5">
      <path id="Path_1071" data-name="Path 1071" d="M487.913,1461.607a5.692,5.692,0,1,1-5.691-5.692A5.691,5.691,0,0,1,487.913,1461.607Z" fill="none"/>
    </clipPath>
    <clipPath id="clip-path-6">
      <path id="Path_1077" data-name="Path 1077" d="M488.258,1461.607a5.884,5.884,0,1,1-5.885-5.884A5.884,5.884,0,0,1,488.258,1461.607Z" fill="none" stroke="#d0d2d3" stroke-miterlimit="10" stroke-width="0.269"/>
    </clipPath>
    <clipPath id="clip-path-7">
      <rect id="Rectangle_181" data-name="Rectangle 181" width="21.44" height="12.508" transform="translate(471.582 1455.374)" fill="none"/>
    </clipPath>
  </defs>
  <g id="Japan" transform="translate(-475.461 -1454.982)">
    <g id="Japan-2" data-name="Japan">
      <g id="Group_647" data-name="Group 647">
        <g id="Group_639" data-name="Group 639">
          <g id="Group_638" data-name="Group 638" clip-path="url(#clip-path)">
            <g id="Group_637" data-name="Group 637">
              <g id="Group_636" data-name="Group 636">
                <path id="Path_1022" data-name="Path 1022" d="M480.232,1456.1h3.8v3.917l9.509-.114v3.8l-9.509.114v3.8h-3.8v-3.8l-9.51-.114v-3.8l9.51.114Z" fill="#fff"/>
                <path id="Path_1023" data-name="Path 1023" d="M470.722,1456.1l2.552.114,20.27,10.133v1.161l-2.551.114-20.271-10.247Z" fill="#fff"/>
                <g id="Group_635" data-name="Group 635">
                  <path id="Path_1024" data-name="Path 1024" d="M493.544,1456.1l-2.551.114-20.271,10.133v1.161l2.552.114,20.27-10.247Z" fill="#fff"/>
                </g>
              </g>
            </g>
          </g>
        </g>
        <path id="Path_1026" data-name="Path 1026" d="M486.587,1459.617c0,1.722-1.993,3.118-4.453,3.118s-4.453-1.4-4.453-3.118,1.994-3.118,4.453-3.118S486.587,1457.9,486.587,1459.617Z" opacity="0.5" fill="url(#linear-gradient)"/>
        <path id="Path_1027" data-name="Path 1027" d="M475.952,1461.753a6.251,6.251,0,0,0,2.317,4.863,7.436,7.436,0,0,1,0-9.727A6.251,6.251,0,0,0,475.952,1461.753Zm10.208-4.864a7.433,7.433,0,0,1,0,9.727,6.261,6.261,0,0,0,0-9.727Z" fill="url(#linear-gradient-2)"/>
        <path id="Path_1028" data-name="Path 1028" d="M482.215,1467.568a5.881,5.881,0,0,1-5.879-5.66c0,.039,0,.079,0,.118a5.88,5.88,0,1,0,11.759,0c0-.039,0-.079,0-.118A5.88,5.88,0,0,1,482.215,1467.568Z" fill="#fff"/>
        <path id="Path_1029" data-name="Path 1029" d="M482.215,1456a5.8,5.8,0,0,1,5.878,5.564c0-.039,0-.079,0-.118a5.88,5.88,0,1,0-11.759,0c0,.039,0,.079,0,.118A5.8,5.8,0,0,1,482.215,1456Z" fill="#fff"/>
        <g id="Group_646" data-name="Group 646">
          <g id="Group_645" data-name="Group 645" clip-path="url(#clip-path-2)">
            <g id="Group_644" data-name="Group 644">
              <g id="Group_643" data-name="Group 643">
                <g id="Group_642" data-name="Group 642" clip-path="url(#clip-path-3)">
                  <rect id="Rectangle_176" data-name="Rectangle 176" width="21.44" height="12.508" transform="translate(471.495 1455.567)" fill="#fff"/>
                  <g id="Group_641" data-name="Group 641">
                    <g id="Group_640" data-name="Group 640" clip-path="url(#clip-path-3)">
                      <path id="Path_1030" data-name="Path 1030" d="M482.215,1458.068a3.752,3.752,0,1,1-3.753,3.752,3.752,3.752,0,0,1,3.753-3.752" fill="#ac1f23"/>
                    </g>
                  </g>
                </g>
              </g>
            </g>
          </g>
          <path id="Path_1032" data-name="Path 1032" d="M488.17,1461.8a5.885,5.885,0,1,1-5.884-5.884A5.883,5.883,0,0,1,488.17,1461.8Z" fill="none" stroke="#d0d2d3" stroke-miterlimit="10" stroke-width="0.269"/>
        </g>
        <path id="Path_1033" data-name="Path 1033" d="M487.194,1459.488c0,1.877-2.174,3.4-4.854,3.4s-4.855-1.521-4.855-3.4,2.174-3.4,4.855-3.4S487.194,1457.611,487.194,1459.488Z" opacity="0.7" fill="url(#linear-gradient-3)"/>
      </g>
      <path id="Path_1034" data-name="Path 1034" d="M488.3,1463.977a6.485,6.485,0,1,1-3.857-8.364A6.47,6.47,0,0,1,488.3,1463.977Z" opacity="0.2" fill="url(#radial-gradient)"/>
      <g id="Group_650" data-name="Group 650" opacity="0.3">
        <g id="Group_649" data-name="Group 649">
          <g id="Group_648" data-name="Group 648">
            <path id="Path_1035" data-name="Path 1035" d="M488.969,1461.736a6.754,6.754,0,1,1-6.754-6.754A6.753,6.753,0,0,1,488.969,1461.736Z" fill="#fff"/>
            <path id="Path_1036" data-name="Path 1036" d="M488.954,1461.736a6.74,6.74,0,1,1-6.739-6.74A6.739,6.739,0,0,1,488.954,1461.736Z" fill="#f7f7f7"/>
            <path id="Path_1037" data-name="Path 1037" d="M488.94,1461.736a6.725,6.725,0,1,1-6.725-6.725A6.724,6.724,0,0,1,488.94,1461.736Z" fill="#efefef"/>
            <path id="Path_1038" data-name="Path 1038" d="M488.925,1461.736a6.71,6.71,0,1,1-6.71-6.711A6.71,6.71,0,0,1,488.925,1461.736Z" fill="#e6e6e6"/>
            <path id="Path_1039" data-name="Path 1039" d="M488.911,1461.736a6.7,6.7,0,1,1-6.7-6.7A6.7,6.7,0,0,1,488.911,1461.736Z" fill="#dedede"/>
            <path id="Path_1040" data-name="Path 1040" d="M488.9,1461.736a6.682,6.682,0,1,1-6.681-6.682A6.681,6.681,0,0,1,488.9,1461.736Z" fill="#d6d6d6"/>
            <path id="Path_1041" data-name="Path 1041" d="M488.882,1461.736a6.667,6.667,0,1,1-6.667-6.667A6.667,6.667,0,0,1,488.882,1461.736Z" fill="#cecece"/>
            <path id="Path_1042" data-name="Path 1042" d="M488.867,1461.736a6.652,6.652,0,1,1-6.652-6.653A6.652,6.652,0,0,1,488.867,1461.736Z" fill="#c5c5c5"/>
            <path id="Path_1043" data-name="Path 1043" d="M488.853,1461.736a6.638,6.638,0,1,1-6.638-6.638A6.638,6.638,0,0,1,488.853,1461.736Z" fill="#bdbdbd"/>
            <path id="Path_1044" data-name="Path 1044" d="M488.838,1461.736a6.623,6.623,0,1,1-6.623-6.624A6.623,6.623,0,0,1,488.838,1461.736Z" fill="#b5b5b5"/>
            <path id="Path_1045" data-name="Path 1045" d="M488.824,1461.736a6.609,6.609,0,1,1-6.609-6.609A6.609,6.609,0,0,1,488.824,1461.736Z" fill="#adadad"/>
            <path id="Path_1046" data-name="Path 1046" d="M488.809,1461.736a6.594,6.594,0,1,1-6.594-6.595A6.594,6.594,0,0,1,488.809,1461.736Z" fill="#a5a5a5"/>
            <path id="Path_1047" data-name="Path 1047" d="M488.8,1461.736a6.58,6.58,0,1,1-6.58-6.58A6.58,6.58,0,0,1,488.8,1461.736Z" fill="#9c9c9c"/>
            <path id="Path_1048" data-name="Path 1048" d="M488.78,1461.736a6.565,6.565,0,1,1-6.565-6.566A6.565,6.565,0,0,1,488.78,1461.736Z" fill="#949494"/>
            <path id="Path_1049" data-name="Path 1049" d="M488.766,1461.736a6.551,6.551,0,1,1-6.551-6.551A6.551,6.551,0,0,1,488.766,1461.736Z" fill="#8c8c8c"/>
            <path id="Path_1050" data-name="Path 1050" d="M488.751,1461.736a6.536,6.536,0,1,1-6.536-6.537A6.536,6.536,0,0,1,488.751,1461.736Z" fill="#848484"/>
            <path id="Path_1051" data-name="Path 1051" d="M488.736,1461.736a6.521,6.521,0,1,1-6.521-6.522A6.521,6.521,0,0,1,488.736,1461.736Z" fill="#7b7b7b"/>
            <path id="Path_1052" data-name="Path 1052" d="M488.722,1461.736a6.507,6.507,0,1,1-6.507-6.508A6.507,6.507,0,0,1,488.722,1461.736Z" fill="#737373"/>
            <path id="Path_1053" data-name="Path 1053" d="M488.707,1461.736a6.493,6.493,0,1,1-6.492-6.493A6.492,6.492,0,0,1,488.707,1461.736Z" fill="#6b6b6b"/>
            <path id="Path_1054" data-name="Path 1054" d="M488.693,1461.736a6.478,6.478,0,1,1-6.478-6.479A6.478,6.478,0,0,1,488.693,1461.736Z" fill="#636363"/>
            <path id="Path_1055" data-name="Path 1055" d="M488.678,1461.736a6.464,6.464,0,1,1-6.463-6.464A6.463,6.463,0,0,1,488.678,1461.736Z" fill="#5a5a5a"/>
            <path id="Path_1056" data-name="Path 1056" d="M488.664,1461.736a6.449,6.449,0,1,1-6.449-6.449A6.449,6.449,0,0,1,488.664,1461.736Z" fill="#525252"/>
            <path id="Path_1057" data-name="Path 1057" d="M488.649,1461.736a6.434,6.434,0,1,1-6.434-6.435A6.434,6.434,0,0,1,488.649,1461.736Z" fill="#4a4a4a"/>
            <path id="Path_1058" data-name="Path 1058" d="M488.635,1461.736a6.42,6.42,0,1,1-6.42-6.42A6.42,6.42,0,0,1,488.635,1461.736Z" fill="#424242"/>
            <path id="Path_1059" data-name="Path 1059" d="M488.62,1461.736a6.406,6.406,0,1,1-6.4-6.406A6.4,6.4,0,0,1,488.62,1461.736Z" fill="#3a3a3a"/>
            <path id="Path_1060" data-name="Path 1060" d="M488.606,1461.736a6.391,6.391,0,1,1-6.391-6.391A6.391,6.391,0,0,1,488.606,1461.736Z" fill="#313131"/>
            <path id="Path_1061" data-name="Path 1061" d="M488.591,1461.736a6.376,6.376,0,1,1-6.376-6.377A6.376,6.376,0,0,1,488.591,1461.736Z" fill="#292929"/>
            <path id="Path_1062" data-name="Path 1062" d="M488.577,1461.736a6.362,6.362,0,1,1-6.362-6.362A6.362,6.362,0,0,1,488.577,1461.736Z" fill="#212121"/>
            <path id="Path_1063" data-name="Path 1063" d="M488.562,1461.736a6.348,6.348,0,1,1-6.347-6.348A6.347,6.347,0,0,1,488.562,1461.736Z" fill="#191919"/>
            <path id="Path_1064" data-name="Path 1064" d="M488.548,1461.736a6.333,6.333,0,1,1-6.333-6.333A6.333,6.333,0,0,1,488.548,1461.736Z" fill="#101010"/>
            <path id="Path_1065" data-name="Path 1065" d="M488.533,1461.736a6.318,6.318,0,1,1-6.318-6.319A6.318,6.318,0,0,1,488.533,1461.736Z" fill="#080808"/>
            <path id="Path_1066" data-name="Path 1066" d="M488.519,1461.736a6.3,6.3,0,1,1-6.3-6.3A6.3,6.3,0,0,1,488.519,1461.736Z"/>
          </g>
          <path id="Path_1067" data-name="Path 1067" d="M488.519,1461.736a6.3,6.3,0,1,1-6.3-6.3A6.3,6.3,0,0,1,488.519,1461.736Z" stroke="#231f20" stroke-width="0.16" fill="url(#radial-gradient-2)"/>
        </g>
      </g>
    </g>
    <g id="Japan-3" data-name="Japan">
      <g id="Group_663" data-name="Group 663">
        <g id="Group_655" data-name="Group 655">
          <g id="Group_654" data-name="Group 654" clip-path="url(#clip-path-5)">
            <g id="Group_653" data-name="Group 653">
              <g id="Group_652" data-name="Group 652">
                <path id="Path_1068" data-name="Path 1068" d="M480.319,1455.908h3.8v3.917l9.509-.114v3.8l-9.509.114v3.8h-3.8v-3.8l-9.51-.114v-3.8l9.51.114Z" fill="#fff"/>
                <path id="Path_1069" data-name="Path 1069" d="M470.809,1455.908l2.552.114,20.27,10.133v1.161l-2.551.114-20.271-10.247Z" fill="#fff"/>
                <g id="Group_651" data-name="Group 651">
                  <path id="Path_1070" data-name="Path 1070" d="M493.631,1455.908l-2.551.114-20.271,10.133v1.161l2.552.114,20.27-10.247Z" fill="#fff"/>
                </g>
              </g>
            </g>
          </g>
        </g>
        <path id="Path_1072" data-name="Path 1072" d="M486.674,1459.424c0,1.722-1.993,3.118-4.452,3.118s-4.454-1.4-4.454-3.118,1.994-3.118,4.454-3.118S486.674,1457.7,486.674,1459.424Z" opacity="0.5" fill="url(#linear-gradient)"/>
        <path id="Path_1073" data-name="Path 1073" d="M476.039,1461.56a6.249,6.249,0,0,0,2.318,4.863,7.433,7.433,0,0,1,0-9.727A6.249,6.249,0,0,0,476.039,1461.56Zm10.208-4.864a7.433,7.433,0,0,1,0,9.727,6.261,6.261,0,0,0,0-9.727Z" fill="url(#linear-gradient-2)"/>
        <path id="Path_1074" data-name="Path 1074" d="M482.3,1467.375a5.879,5.879,0,0,1-5.878-5.66c0,.039,0,.079,0,.118a5.88,5.88,0,1,0,11.76,0c0-.039,0-.079,0-.118A5.88,5.88,0,0,1,482.3,1467.375Z" fill="#fff"/>
        <path id="Path_1075" data-name="Path 1075" d="M482.3,1455.806a5.8,5.8,0,0,1,5.878,5.565c0-.04,0-.08,0-.119a5.88,5.88,0,0,0-11.76,0c0,.039,0,.079,0,.119A5.8,5.8,0,0,1,482.3,1455.806Z" fill="#fff"/>
        <g id="Group_662" data-name="Group 662">
          <g id="Group_661" data-name="Group 661" clip-path="url(#clip-path-6)">
            <g id="Group_660" data-name="Group 660">
              <g id="Group_659" data-name="Group 659">
                <g id="Group_658" data-name="Group 658" clip-path="url(#clip-path-7)">
                  <rect id="Rectangle_179" data-name="Rectangle 179" width="21.44" height="12.508" transform="translate(471.582 1455.374)" fill="#fff"/>
                  <g id="Group_657" data-name="Group 657">
                    <g id="Group_656" data-name="Group 656" clip-path="url(#clip-path-7)">
                      <path id="Path_1076" data-name="Path 1076" d="M482.3,1457.875a3.753,3.753,0,1,1-3.752,3.752,3.752,3.752,0,0,1,3.752-3.752" fill="#ac1f23"/>
                    </g>
                  </g>
                </g>
              </g>
            </g>
          </g>
          <path id="Path_1078" data-name="Path 1078" d="M488.258,1461.607a5.884,5.884,0,1,1-5.885-5.884A5.884,5.884,0,0,1,488.258,1461.607Z" fill="none" stroke="#d0d2d3" stroke-miterlimit="10" stroke-width="0.269"/>
        </g>
        <path id="Path_1079" data-name="Path 1079" d="M487.282,1459.3c0,1.877-2.174,3.4-4.855,3.4s-4.855-1.522-4.855-3.4,2.174-3.4,4.855-3.4S487.282,1457.418,487.282,1459.3Z" opacity="0.5" fill="url(#linear-gradient)"/>
      </g>
    </g>
  </g>
</svg>
