<svg xmlns="http://www.w3.org/2000/svg" width="20.985" height="20.985" viewBox="0 0 20.985 20.985">
  <g id="minimize" transform="translate(0)">
    <path id="Path_676" data-name="Path 676" d="M34.352,33.792h3.8a.4.4,0,0,0,0-.792H33.4a.4.4,0,0,0-.365.245A.391.391,0,0,0,33,33.4v4.751a.4.4,0,0,0,.792,0v-3.8L40.243,40.8a.4.4,0,1,0,.56-.56Z" transform="translate(-19.934 -19.934)"/>
    <path id="Path_677" data-name="Path 677" d="M6.566,7.127h-3.8a.4.4,0,1,0,0,.792H7.522a.4.4,0,0,0,.365-.245.392.392,0,0,0,.03-.151V2.771a.4.4,0,0,0-.792,0v3.8L.676.116a.4.4,0,0,0-.56.56Z" transform="translate(0 0)"/>
    <path id="Path_678" data-name="Path 678" d="M7.674,33.03A.4.4,0,0,0,7.523,33H2.771a.4.4,0,1,0,0,.792h3.8L.116,40.243a.4.4,0,1,0,.56.56l6.451-6.451v3.8a.4.4,0,0,0,.792,0V33.4a.4.4,0,0,0-.245-.365Z" transform="translate(0 -19.934)"/>
    <path id="Path_679" data-name="Path 679" d="M33.245,7.888a.4.4,0,0,0,.151.03h4.751a.4.4,0,0,0,0-.792h-3.8L40.8.676a.4.4,0,1,0-.56-.56L33.792,6.567v-3.8a.4.4,0,1,0-.792,0V7.523a.4.4,0,0,0,.245.365Z" transform="translate(-19.934 0)"/>
  </g>
</svg>
