<svg xmlns="http://www.w3.org/2000/svg" width="8.197" height="8.715" viewBox="0 0 8.197 8.715">
    <path id="Path_3759" data-name="Path 3759"
          d="M684.282,4071.753l-7.778,3.12a.209.209,0,0,0-.052.358l6.592,5.177a.209.209,0,0,0,.336-.135l1.187-8.3A.21.21,0,0,0,684.282,4071.753Zm-2.01,2.56.2,2.737a.209.209,0,0,1-.3.2l-2.468-1.2a.209.209,0,0,1-.025-.361l2.272-1.537A.21.21,0,0,1,682.272,4074.313Z"
          transform="translate(-676.372 -4071.738)" fill="#333"/>
</svg>
